%YAML 1.1
%TAG !u! tag:unity3d.com,2011:
--- !u!114 &11400000
MonoBehaviour:
  m_ObjectHideFlags: 0
  m_CorrespondingSourceObject: {fileID: 0}
  m_PrefabInstance: {fileID: 0}
  m_PrefabAsset: {fileID: 0}
  m_GameObject: {fileID: 0}
  m_Enabled: 1
  m_EditorHideFlags: 0
  m_Script: {fileID: 11500000, guid: bf8d0947a72c248418cb3ba4e84e4a53, type: 3}
  m_Name: 014_Kakuna
  m_EditorClassIdentifier: 
  id: 14
  pokemonName: Kakuna
  levelBase: 0
  hpBase: 0
  attackBase: 0
  defenseBase: 0
  speedBase: 0
  types: 0700000000000000
  animations:
  - animState: 0
    index: 0
    sprites:
    - {fileID: -5269083885508441217, guid: 618bb3f16338ff14eba406d6c30cf8df, type: 3}
    - {fileID: 3079533484126132506, guid: 618bb3f16338ff14eba406d6c30cf8df, type: 3}
    - {fileID: -5269083885508441217, guid: 618bb3f16338ff14eba406d6c30cf8df, type: 3}
    timeBetweenSprites: 0.3
    actualSpriteIndex: 0
    loop: 1
  - animState: 1
    index: 1
    sprites:
    - {fileID: 7928460835357638694, guid: 618bb3f16338ff14eba406d6c30cf8df, type: 3}
    - {fileID: 6010929994407676226, guid: 618bb3f16338ff14eba406d6c30cf8df, type: 3}
    - {fileID: 7928460835357638694, guid: 618bb3f16338ff14eba406d6c30cf8df, type: 3}
    timeBetweenSprites: 0.3
    actualSpriteIndex: 0
    loop: 1
