%YAML 1.1
%TAG !u! tag:unity3d.com,2011:
--- !u!114 &11400000
MonoBehaviour:
  m_ObjectHideFlags: 0
  m_CorrespondingSourceObject: {fileID: 0}
  m_PrefabInstance: {fileID: 0}
  m_PrefabAsset: {fileID: 0}
  m_GameObject: {fileID: 0}
  m_Enabled: 1
  m_EditorHideFlags: 0
  m_Script: {fileID: 11500000, guid: bf8d0947a72c248418cb3ba4e84e4a53, type: 3}
  m_Name: 021_Spearow
  m_EditorClassIdentifier: 
  id: 21
  pokemonName: Spearow
  levelBase: 0
  hpBase: 0
  attackBase: 0
  defenseBase: 0
  speedBase: 0
  types: 0900000000000000
  animations:
  - animState: 0
    index: 0
    sprites:
    - {fileID: 350392015962585373, guid: d310ba287cf4a484485f6e6816ead889, type: 3}
    - {fileID: 6216208506925224261, guid: d310ba287cf4a484485f6e6816ead889, type: 3}
    - {fileID: 350392015962585373, guid: d310ba287cf4a484485f6e6816ead889, type: 3}
    timeBetweenSprites: 0.3
    actualSpriteIndex: 0
    loop: 1
  - animState: 1
    index: 1
    sprites:
    - {fileID: -7472401994361169312, guid: d310ba287cf4a484485f6e6816ead889, type: 3}
    - {fileID: -7257482945758161348, guid: d310ba287cf4a484485f6e6816ead889, type: 3}
    - {fileID: -3002708872259871270, guid: d310ba287cf4a484485f6e6816ead889, type: 3}
    - {fileID: -7472401994361169312, guid: d310ba287cf4a484485f6e6816ead889, type: 3}
    timeBetweenSprites: 0.3
    actualSpriteIndex: 0
    loop: 1
