%YAML 1.1
%TAG !u! tag:unity3d.com,2011:
--- !u!114 &11400000
MonoBehaviour:
  m_ObjectHideFlags: 0
  m_CorrespondingSourceObject: {fileID: 0}
  m_PrefabInstance: {fileID: 0}
  m_PrefabAsset: {fileID: 0}
  m_GameObject: {fileID: 0}
  m_Enabled: 1
  m_EditorHideFlags: 0
  m_Script: {fileID: 11500000, guid: bf8d0947a72c248418cb3ba4e84e4a53, type: 3}
  m_Name: "032_Nidoran\u2642"
  m_EditorClassIdentifier: 
  id: 32
  pokemonName: "Nidoran\u2642"
  levelBase: 0
  hpBase: 0
  attackBase: 0
  defenseBase: 0
  speedBase: 0
  types: 07000000
  animations:
  - animState: 0
    index: 0
    sprites:
    - {fileID: 2833166446035059938, guid: b130b8a1d636be342978970dd7c512aa, type: 3}
    - {fileID: -8433890169907233978, guid: b130b8a1d636be342978970dd7c512aa, type: 3}
    - {fileID: 213492972048032708, guid: b130b8a1d636be342978970dd7c512aa, type: 3}
    - {fileID: 2833166446035059938, guid: b130b8a1d636be342978970dd7c512aa, type: 3}
    timeBetweenSprites: 0.3
    actualSpriteIndex: 0
    loop: 1
  - animState: 1
    index: 1
    sprites:
    - {fileID: -3330961615528077729, guid: b130b8a1d636be342978970dd7c512aa, type: 3}
    - {fileID: 1203939966555230536, guid: b130b8a1d636be342978970dd7c512aa, type: 3}
    - {fileID: 4010298259207478714, guid: b130b8a1d636be342978970dd7c512aa, type: 3}
    - {fileID: -3330961615528077729, guid: b130b8a1d636be342978970dd7c512aa, type: 3}
    timeBetweenSprites: 0.3
    actualSpriteIndex: 0
    loop: 1
