%YAML 1.1
%TAG !u! tag:unity3d.com,2011:
--- !u!114 &11400000
MonoBehaviour:
  m_ObjectHideFlags: 0
  m_CorrespondingSourceObject: {fileID: 0}
  m_PrefabInstance: {fileID: 0}
  m_PrefabAsset: {fileID: 0}
  m_GameObject: {fileID: 0}
  m_Enabled: 1
  m_EditorHideFlags: 0
  m_Script: {fileID: 11500000, guid: bf8d0947a72c248418cb3ba4e84e4a53, type: 3}
  m_Name: 058_Growlithe
  m_EditorClassIdentifier: 
  id: 58
  pokemonName: Growlithe
  levelBase: 0
  hpBase: 0
  attackBase: 0
  defenseBase: 0
  speedBase: 0
  types: 01000000
  animations:
  - animState: 0
    index: 0
    sprites:
    - {fileID: -4021610727434120497, guid: 8c3c69f6e4da862499de59422a05160d, type: 3}
    - {fileID: -4021610727434120497, guid: 8c3c69f6e4da862499de59422a05160d, type: 3}
    timeBetweenSprites: 0.3
    actualSpriteIndex: 0
    loop: 1
  - animState: 1
    index: 1
    sprites:
    - {fileID: 4048329390375199178, guid: 8c3c69f6e4da862499de59422a05160d, type: 3}
    - {fileID: 440430194415114159, guid: 8c3c69f6e4da862499de59422a05160d, type: 3}
    - {fileID: -594034476756411945, guid: 8c3c69f6e4da862499de59422a05160d, type: 3}
    - {fileID: 4048329390375199178, guid: 8c3c69f6e4da862499de59422a05160d, type: 3}
    timeBetweenSprites: 0.3
    actualSpriteIndex: 0
    loop: 1
