%YAML 1.1
%TAG !u! tag:unity3d.com,2011:
--- !u!114 &11400000
MonoBehaviour:
  m_ObjectHideFlags: 0
  m_CorrespondingSourceObject: {fileID: 0}
  m_PrefabInstance: {fileID: 0}
  m_PrefabAsset: {fileID: 0}
  m_GameObject: {fileID: 0}
  m_Enabled: 1
  m_EditorHideFlags: 0
  m_Script: {fileID: 11500000, guid: bf8d0947a72c248418cb3ba4e84e4a53, type: 3}
  m_Name: 072_Tentacool
  m_EditorClassIdentifier: 
  id: 72
  pokemonName: Tentacool
  levelBase: 0
  hpBase: 0
  attackBase: 0
  defenseBase: 0
  speedBase: 0
  types: 0700000000000000
  animations:
  - animState: 0
    index: 0
    sprites:
    - {fileID: -5221600311729787686, guid: 85f203bcf8f61324fbe6b824cac0c232, type: 3}
    - {fileID: -3356931330265173142, guid: 85f203bcf8f61324fbe6b824cac0c232, type: 3}
    - {fileID: -8813977395045043194, guid: 85f203bcf8f61324fbe6b824cac0c232, type: 3}
    - {fileID: -5221600311729787686, guid: 85f203bcf8f61324fbe6b824cac0c232, type: 3}
    timeBetweenSprites: 0.3
    actualSpriteIndex: 0
    loop: 1
  - animState: 1
    index: 1
    sprites:
    - {fileID: -4176058063775791213, guid: 85f203bcf8f61324fbe6b824cac0c232, type: 3}
    - {fileID: -8125762348097531315, guid: 85f203bcf8f61324fbe6b824cac0c232, type: 3}
    - {fileID: -5322408834961622773, guid: 85f203bcf8f61324fbe6b824cac0c232, type: 3}
    - {fileID: -4176058063775791213, guid: 85f203bcf8f61324fbe6b824cac0c232, type: 3}
    timeBetweenSprites: 0.3
    actualSpriteIndex: 0
    loop: 1
