%YAML 1.1
%TAG !u! tag:unity3d.com,2011:
--- !u!114 &11400000
MonoBehaviour:
  m_ObjectHideFlags: 0
  m_CorrespondingSourceObject: {fileID: 0}
  m_PrefabInstance: {fileID: 0}
  m_PrefabAsset: {fileID: 0}
  m_GameObject: {fileID: 0}
  m_Enabled: 1
  m_EditorHideFlags: 0
  m_Script: {fileID: 11500000, guid: bf8d0947a72c248418cb3ba4e84e4a53, type: 3}
  m_Name: 073_Tentacruel
  m_EditorClassIdentifier: 
  id: 73
  pokemonName: Tentacruel
  levelBase: 0
  hpBase: 0
  attackBase: 0
  defenseBase: 0
  speedBase: 0
  types: 0700000000000000
  animations:
  - animState: 0
    index: 0
    sprites:
    - {fileID: 1239633573979081750, guid: f889a05b12677184f8a3af69a50b93d0, type: 3}
    - {fileID: 4557739778964089461, guid: f889a05b12677184f8a3af69a50b93d0, type: 3}
    - {fileID: -8743197638629784583, guid: f889a05b12677184f8a3af69a50b93d0, type: 3}
    - {fileID: 1239633573979081750, guid: f889a05b12677184f8a3af69a50b93d0, type: 3}
    timeBetweenSprites: 0.3
    actualSpriteIndex: 0
    loop: 1
  - animState: 1
    index: 1
    sprites:
    - {fileID: 2781253027685269627, guid: f889a05b12677184f8a3af69a50b93d0, type: 3}
    - {fileID: -7244452010261204621, guid: f889a05b12677184f8a3af69a50b93d0, type: 3}
    - {fileID: 2947021828265420655, guid: f889a05b12677184f8a3af69a50b93d0, type: 3}
    - {fileID: 2781253027685269627, guid: f889a05b12677184f8a3af69a50b93d0, type: 3}
    timeBetweenSprites: 0.3
    actualSpriteIndex: 0
    loop: 1
