%YAML 1.1
%TAG !u! tag:unity3d.com,2011:
--- !u!114 &11400000
MonoBehaviour:
  m_ObjectHideFlags: 0
  m_CorrespondingSourceObject: {fileID: 0}
  m_PrefabInstance: {fileID: 0}
  m_PrefabAsset: {fileID: 0}
  m_GameObject: {fileID: 0}
  m_Enabled: 1
  m_EditorHideFlags: 0
  m_Script: {fileID: 11500000, guid: bf8d0947a72c248418cb3ba4e84e4a53, type: 3}
  m_Name: 079_Slowpoke
  m_EditorClassIdentifier: 
  id: 79
  pokemonName: Slowpoke
  levelBase: 0
  hpBase: 0
  attackBase: 0
  defenseBase: 0
  speedBase: 0
  types: 0a00000000000000
  animations:
  - animState: 0
    index: 0
    sprites:
    - {fileID: -9060414714980265004, guid: 830d76a30657a5d408e05333a65f223b, type: 3}
    - {fileID: -582036992857724683, guid: 830d76a30657a5d408e05333a65f223b, type: 3}
    - {fileID: -9060414714980265004, guid: 830d76a30657a5d408e05333a65f223b, type: 3}
    timeBetweenSprites: 0.3
    actualSpriteIndex: 0
    loop: 1
  - animState: 1
    index: 1
    sprites:
    - {fileID: 7369488923905038539, guid: 830d76a30657a5d408e05333a65f223b, type: 3}
    - {fileID: 65350771264083027, guid: 830d76a30657a5d408e05333a65f223b, type: 3}
    - {fileID: -7961583864526429944, guid: 830d76a30657a5d408e05333a65f223b, type: 3}
    - {fileID: 7369488923905038539, guid: 830d76a30657a5d408e05333a65f223b, type: 3}
    timeBetweenSprites: 0.3
    actualSpriteIndex: 0
    loop: 1
