%YAML 1.1
%TAG !u! tag:unity3d.com,2011:
--- !u!114 &11400000
MonoBehaviour:
  m_ObjectHideFlags: 0
  m_CorrespondingSourceObject: {fileID: 0}
  m_PrefabInstance: {fileID: 0}
  m_PrefabAsset: {fileID: 0}
  m_GameObject: {fileID: 0}
  m_Enabled: 1
  m_EditorHideFlags: 0
  m_Script: {fileID: 11500000, guid: bf8d0947a72c248418cb3ba4e84e4a53, type: 3}
  m_Name: 088_Grimer
  m_EditorClassIdentifier: 
  id: 88
  pokemonName: Grimer
  levelBase: 0
  hpBase: 0
  attackBase: 0
  defenseBase: 0
  speedBase: 0
  types: 07000000
  animations:
  - animState: 0
    index: 0
    sprites:
    - {fileID: -1147329493489943084, guid: 737ec695fda35b540ad0f4dc6a46fed1, type: 3}
    - {fileID: 1190820836658883230, guid: 737ec695fda35b540ad0f4dc6a46fed1, type: 3}
    - {fileID: 6754849676079094319, guid: 737ec695fda35b540ad0f4dc6a46fed1, type: 3}
    - {fileID: 343429635271228273, guid: 737ec695fda35b540ad0f4dc6a46fed1, type: 3}
    - {fileID: -1147329493489943084, guid: 737ec695fda35b540ad0f4dc6a46fed1, type: 3}
    timeBetweenSprites: 0.3
    actualSpriteIndex: 0
    loop: 1
  - animState: 1
    index: 1
    sprites:
    - {fileID: -5791940335934758545, guid: 737ec695fda35b540ad0f4dc6a46fed1, type: 3}
    - {fileID: 3227647346142513339, guid: 737ec695fda35b540ad0f4dc6a46fed1, type: 3}
    - {fileID: -6632779057128433873, guid: 737ec695fda35b540ad0f4dc6a46fed1, type: 3}
    - {fileID: -5791940335934758545, guid: 737ec695fda35b540ad0f4dc6a46fed1, type: 3}
    timeBetweenSprites: 0.3
    actualSpriteIndex: 0
    loop: 1
