%YAML 1.1
%TAG !u! tag:unity3d.com,2011:
--- !u!114 &11400000
MonoBehaviour:
  m_ObjectHideFlags: 0
  m_CorrespondingSourceObject: {fileID: 0}
  m_PrefabInstance: {fileID: 0}
  m_PrefabAsset: {fileID: 0}
  m_GameObject: {fileID: 0}
  m_Enabled: 1
  m_EditorHideFlags: 0
  m_Script: {fileID: 11500000, guid: bf8d0947a72c248418cb3ba4e84e4a53, type: 3}
  m_Name: 092_Gastly
  m_EditorClassIdentifier: 
  id: 92
  pokemonName: Gastly
  levelBase: 0
  hpBase: 0
  attackBase: 0
  defenseBase: 0
  speedBase: 0
  types: 0700000000000000
  animations:
  - animState: 0
    index: 0
    sprites:
    - {fileID: -6314396503271397066, guid: f8d01dedb352bf844995013a4b339132, type: 3}
    - {fileID: 5988168932872516473, guid: f8d01dedb352bf844995013a4b339132, type: 3}
    - {fileID: 7544428030254951211, guid: f8d01dedb352bf844995013a4b339132, type: 3}
    - {fileID: -6314396503271397066, guid: f8d01dedb352bf844995013a4b339132, type: 3}
    timeBetweenSprites: 0.3
    actualSpriteIndex: 0
    loop: 1
  - animState: 1
    index: 1
    sprites:
    - {fileID: 2064989668290403672, guid: f8d01dedb352bf844995013a4b339132, type: 3}
    - {fileID: -6352114666456582491, guid: f8d01dedb352bf844995013a4b339132, type: 3}
    - {fileID: 1921869370725506945, guid: f8d01dedb352bf844995013a4b339132, type: 3}
    - {fileID: 2064989668290403672, guid: f8d01dedb352bf844995013a4b339132, type: 3}
    timeBetweenSprites: 0.3
    actualSpriteIndex: 0
    loop: 1
