%YAML 1.1
%TAG !u! tag:unity3d.com,2011:
--- !u!114 &11400000
MonoBehaviour:
  m_ObjectHideFlags: 0
  m_CorrespondingSourceObject: {fileID: 0}
  m_PrefabInstance: {fileID: 0}
  m_PrefabAsset: {fileID: 0}
  m_GameObject: {fileID: 0}
  m_Enabled: 1
  m_EditorHideFlags: 0
  m_Script: {fileID: 11500000, guid: bf8d0947a72c248418cb3ba4e84e4a53, type: 3}
  m_Name: 106_Hitmonlee
  m_EditorClassIdentifier: 
  id: 106
  pokemonName: Hitmonlee
  levelBase: 0
  hpBase: 0
  attackBase: 0
  defenseBase: 0
  speedBase: 0
  types: 06000000
  animations:
  - animState: 0
    index: 0
    sprites:
    - {fileID: 2409924466537278352, guid: b8948aebd0380e84983bdd93494dbd1f, type: 3}
    - {fileID: -3917637459226382491, guid: b8948aebd0380e84983bdd93494dbd1f, type: 3}
    - {fileID: 2409924466537278352, guid: b8948aebd0380e84983bdd93494dbd1f, type: 3}
    timeBetweenSprites: 0.3
    actualSpriteIndex: 0
    loop: 1
  - animState: 1
    index: 1
    sprites:
    - {fileID: 8399820661199314786, guid: b8948aebd0380e84983bdd93494dbd1f, type: 3}
    - {fileID: 2320558310230898283, guid: b8948aebd0380e84983bdd93494dbd1f, type: 3}
    - {fileID: -4398618301257063908, guid: b8948aebd0380e84983bdd93494dbd1f, type: 3}
    - {fileID: 8399820661199314786, guid: b8948aebd0380e84983bdd93494dbd1f, type: 3}
    timeBetweenSprites: 0.3
    actualSpriteIndex: 0
    loop: 1
