%YAML 1.1
%TAG !u! tag:unity3d.com,2011:
--- !u!114 &11400000
MonoBehaviour:
  m_ObjectHideFlags: 0
  m_CorrespondingSourceObject: {fileID: 0}
  m_PrefabInstance: {fileID: 0}
  m_PrefabAsset: {fileID: 0}
  m_GameObject: {fileID: 0}
  m_Enabled: 1
  m_EditorHideFlags: 0
  m_Script: {fileID: 11500000, guid: bf8d0947a72c248418cb3ba4e84e4a53, type: 3}
  m_Name: 109_Koffing
  m_EditorClassIdentifier: 
  id: 109
  pokemonName: Koffing
  levelBase: 0
  hpBase: 0
  attackBase: 0
  defenseBase: 0
  speedBase: 0
  types: 07000000
  animations:
  - animState: 0
    index: 0
    sprites:
    - {fileID: -6911051388500766191, guid: d4077d96594634d49992d72352ab6475, type: 3}
    - {fileID: 2165039181236899289, guid: d4077d96594634d49992d72352ab6475, type: 3}
    - {fileID: 8760250164754128841, guid: d4077d96594634d49992d72352ab6475, type: 3}
    - {fileID: -6911051388500766191, guid: d4077d96594634d49992d72352ab6475, type: 3}
    timeBetweenSprites: 0.3
    actualSpriteIndex: 0
    loop: 1
  - animState: 1
    index: 1
    sprites:
    - {fileID: 1534838333980518452, guid: d4077d96594634d49992d72352ab6475, type: 3}
    - {fileID: -316666420414815353, guid: d4077d96594634d49992d72352ab6475, type: 3}
    - {fileID: 4287399523402939529, guid: d4077d96594634d49992d72352ab6475, type: 3}
    - {fileID: 1534838333980518452, guid: d4077d96594634d49992d72352ab6475, type: 3}
    timeBetweenSprites: 0.3
    actualSpriteIndex: 0
    loop: 1
