%YAML 1.1
%TAG !u! tag:unity3d.com,2011:
--- !u!114 &11400000
MonoBehaviour:
  m_ObjectHideFlags: 0
  m_CorrespondingSourceObject: {fileID: 0}
  m_PrefabInstance: {fileID: 0}
  m_PrefabAsset: {fileID: 0}
  m_GameObject: {fileID: 0}
  m_Enabled: 1
  m_EditorHideFlags: 0
  m_Script: {fileID: 11500000, guid: bf8d0947a72c248418cb3ba4e84e4a53, type: 3}
  m_Name: 112_Rhydon
  m_EditorClassIdentifier: 
  id: 112
  pokemonName: Rhydon
  levelBase: 0
  hpBase: 0
  attackBase: 0
  defenseBase: 0
  speedBase: 0
  types: 0c00000000000000
  animations:
  - animState: 0
    index: 0
    sprites:
    - {fileID: 1290298093758556069, guid: e3035fa80802cdf43950da54c90edf4b, type: 3}
    - {fileID: -4962718996449700332, guid: e3035fa80802cdf43950da54c90edf4b, type: 3}
    - {fileID: 1290298093758556069, guid: e3035fa80802cdf43950da54c90edf4b, type: 3}
    timeBetweenSprites: 0.3
    actualSpriteIndex: 0
    loop: 1
  - animState: 1
    index: 1
    sprites:
    - {fileID: 142903680522813702, guid: e3035fa80802cdf43950da54c90edf4b, type: 3}
    - {fileID: 6013131198573317421, guid: e3035fa80802cdf43950da54c90edf4b, type: 3}
    - {fileID: 142903680522813702, guid: e3035fa80802cdf43950da54c90edf4b, type: 3}
    timeBetweenSprites: 0.3
    actualSpriteIndex: 0
    loop: 1
